Name;City;Age
Paul 1;München;10
Sebastian;Frankfurt;9
Paul;München;8
Paul;München;6
Paul;München;20
Pa;München;20
Pa;München;20
Pa;München;5
Pa;München;4
Pa;München;3
Paul 3;München;20
Paul;München;20
Paul;München;20
Paul;München;20
Paul;München;20
Paul 4;München;20
Paul;München;20
Paul;München;20
Paul;München;20
Paul;München;20
Paul 5;München;20
Paul;München;20
Paul;München;20
Paul Last;München;20
